…
``` r
dat %>% slice(nrow(dat)-4:nrow(dat))
```

    ## # A tibble: 437 x 15
    ##    player  team  position height weight   age experience college    salary
    ##    <chr>   <chr> <chr>     <int>  <int> <int>      <int> <chr>       <dbl>
    ##  1 Marque~ PHO   PF           82    233    19          0 Universit~ 2.94e6
    ##  2 Leandr~ PHO   SG           75    194    34         13 <NA>       4.00e6
    ##  3 Jared ~ PHO   PF           79    225    31          9 Boston Co~ 1.05e7
    ##  4 Eric B~ PHO   PG           73    190    27          6 Universit~ 1.40e7
    ##  5 Elijah~ PHO   SG           78    225    29          2 Universit~ 2.31e4
    ##  6 Dragan~ PHO   PF           85    225    19          0 <NA>       4.28e6
    ##  7 Devin ~ PHO   SG           78    206    20          1 Universit~ 2.22e6
    ##  8 Derric~ PHO   SF           79    190    19          0 Universit~ 5.43e5
    ##  9 Brando~ PHO   SG           75    189    25          5 Universit~ 1.26e7
    ## 10 Alex L~ PHO   C            85    260    23          3 Universit~ 4.82e6
    ## # ... with 427 more rows, and 6 more variables: games <int>,
    ## #   minutes <int>, points <int>, points3 <int>, points2 <int>,
    ## #   points1 <int>
…
    ## # A tibble: 3 x 2
    ##   player          salary
    ##   <chr>            <dbl>
    ## 1 Delon Wright   1577280
    ## 2 Fred VanVleet   543471
    ## 3 Kyle Lowry    12000000

``` r
#select the name, age, and team, of players with more than 10 years of experience, making 10 million dollars or less.
select(filter(dat, experience > 10 & salary <= 10e6), player, age, team)
```

    ## # A tibble: 32 x 3
    ##    player              age team 
    ##    <chr>             <int> <chr>
    ##  1 Dahntay Jones        36 CLE  
    ##  2 Deron Williams       32 CLE  
    ##  3 James Jones          36 CLE  
    ##  4 Kyle Korver          35 CLE  
    ##  5 Richard Jefferson    36 CLE  
    ##  6 Jose Calderon        35 ATL  
    ##  7 Kris Humphries       31 ATL  
    ##  8 Mike Dunleavy        36 ATL  
    ##  9 Jason Terry          39 MIL  
    ## 10 C.J. Miles           29 IND  
    ## # ... with 22 more rows

``` r
dat %>% filter(experience > 10 & salary <= 10e6) %>% select(player, age, team)
```

    ## # A tibble: 32 x 3
    ##    player              age team 
    ##    <chr>             <int> <chr>
    ##  1 Dahntay Jones        36 CLE  
    ##  2 Deron Williams       32 CLE  
    ##  3 James Jones          36 CLE  
    ##  4 Kyle Korver          35 CLE  
    ##  5 Richard Jefferson    36 CLE  
    ##  6 Jose Calderon        35 ATL  
    ##  7 Kris Humphries       31 ATL  
    ##  8 Mike Dunleavy        36 ATL  
    ##  9 Jason Terry          39 MIL  
    ## 10 C.J. Miles           29 IND  
    ## # ... with 22 more rows
…
    ## # A tibble: 1 x 1
    ##   sd_3pt
    ##    <dbl>
    ## 1   56.0

``` r
#use summarise() and group_by() to display the median of three-points, by team.
summarise(group_by(dat, team),median_3pt = median(points3))
```

    ## # A tibble: 30 x 2
    ##    team  median_3pt
    ##    <chr>      <dbl>
    ##  1 ATL         32.5
    ##  2 BOS         46.0
    ##  3 BRK         44.0
    ##  4 CHI         32.0
    ##  5 CHO         17.0
    ##  6 CLE         62.0
    ##  7 DAL         53.0
    ##  8 DEN         53.0
    ##  9 DET         28.0
    ## 10 GSW         18.0
    ## # ... with 20 more rows

``` r
dat %>% group_by(team) %>% summarise(median_3pt = median(points3))
```

    ## # A tibble: 30 x 2
    ##    team  median_3pt
    ##    <chr>      <dbl>
    ##  1 ATL         32.5
    ##  2 BOS         46.0
    ##  3 BRK         44.0
    ##  4 CHI         32.0
    ##  5 CHO         17.0
    ##  6 CLE         62.0
    ##  7 DAL         53.0
    ##  8 DEN         53.0
    ##  9 DET         28.0
    ## 10 GSW         18.0
    ## # ... with 20 more rows
…
``` r
#Which are the unique teams?
unique(dat$team)
```

    ##  [1] "BOS" "CLE" "TOR" "WAS" "ATL" "MIL" "IND" "CHI" "MIA" "DET" "CHO"
    ## [12] "NYK" "ORL" "PHI" "BRK" "GSW" "SAS" "HOU" "LAC" "UTA" "OKC" "MEM"
    ## [23] "POR" "DEN" "NOP" "DAL" "SAC" "MIN" "LAL" "PHO"

``` r
dat %>% distinct(team)
```

    ## # A tibble: 30 x 1
    ##    team 
    ##    <chr>
    ##  1 BOS  
    ##  2 CLE  
    ##  3 TOR  
    ##  4 WAS  
    ##  5 ATL  
    ##  6 MIL  
    ##  7 IND  
    ##  8 CHI  
    ##  9 MIA  
    ## 10 DET  
    ## # ... with 20 more rows
…
    ## [1] 0

``` r
#Are there any players with weight greater than 260 pounds? If so how many and who are they?
nrow(dat[dat$weight > 260,])
```

    ## [1] 21

``` r
dat[dat$weight > 260,'player']
```

    ## # A tibble: 21 x 1
    ##    player           
    ##    <chr>            
    ##  1 Jonas Valanciunas
    ##  2 Dwight Howard    
    ##  3 Greg Monroe      
    ##  4 Al Jefferson     
    ##  5 Kevin Seraphin   
    ##  6 Cristiano Felicio
    ##  7 Hassan Whiteside 
    ##  8 Andre Drummond   
    ##  9 Boban Marjanovic 
    ## 10 Jahlil Okafor    
    ## # ... with 11 more rows

``` r
dat %>% filter(weight > 260) %>% select('player')
```

    ## # A tibble: 21 x 1
    ##    player           
    ##    <chr>            
    ##  1 Jonas Valanciunas
    ##  2 Dwight Howard    
    ##  3 Greg Monroe      
    ##  4 Al Jefferson     
    ##  5 Kevin Seraphin   
    ##  6 Cristiano Felicio
    ##  7 Hassan Whiteside 
    ##  8 Andre Drummond   
    ##  9 Boban Marjanovic 
    ## 10 Jahlil Okafor    
    ## # ... with 11 more rows
…
``` r
dat %>% group_by(team) %>% summarise(mean(height),mean(weight),mean(age))
```

    ## # A tibble: 30 x 4
    ##    team  `mean(height)` `mean(weight)` `mean(age)`
    ##    <chr>          <dbl>          <dbl>       <dbl>
    ##  1 ATL             79.1            220        28.4
    ##  2 BOS             78.2            220        25.3
    ##  3 BRK             78.7            222        25.5
    ##  4 CHI             78.5            216        25.8
    ##  5 CHO             78.8            213        25.9
    ##  6 CLE             78.9            226        29.6
    ##  7 DAL             79.1            216        26.9
    ##  8 DEN             79.4            220        25.8
    ##  9 DET             79.5            228        25.5
    ## 10 GSW             79.9            224        27.7
    ## # ... with 20 more rows
…
``` r
dat %>% group_by(position, team) %>% summarise(mean(height),mean(weight),mean(age))
```

    ## # A tibble: 150 x 5
    ## # Groups:   position [?]
    ##    position team  `mean(height)` `mean(weight)` `mean(age)`
    ##    <chr>    <chr>          <dbl>          <dbl>       <dbl>
    ##  1 C        ATL             83.0            252        28.0
    ##  2 C        BOS             83.3            245        27.3
    ##  3 C        BRK             84.0            268        27.0
    ##  4 C        CHI             83.0            250        25.7
    ##  5 C        CHO             83.5            246        25.5
    ##  6 C        CLE             83.7            251        27.3
    ##  7 C        DAL             83.8            243        25.2
    ##  8 C        DEN             83.7            255        25.7
    ##  9 C        DET             84.0            276        27.0
    ## 10 C        GSW             82.6            251        27.6
    ## # ... with 140 more rows
…
``` r
dat %>% group_by(position, team) %>% summarise(min(salary),median(salary),mean(salary),max(salary))
```

    ## # A tibble: 150 x 6
    ## # Groups:   position [?]
    ##    position team  `min(salary)` `median(salary)` `mean(salary)`
    ##    <chr>    <chr>         <dbl>            <dbl>          <dbl>
    ##  1 C        ATL         1015696         12097986       12097986
    ##  2 C        BOS         3094014          8000000       12544705
    ##  3 C        BRK         3000000         12082838       12082838
    ##  4 C        CHI          874636          1709720        5267869
    ##  5 C        CHO         2730000          7615000        7615000
    ##  6 C        CLE            5145          7806971        7714184
    ##  7 C        DAL          650000          2629563        3571032
    ##  8 C        DEN         1358500          2328530        2895677
    ##  9 C        DET         6500000          7000000       11872250
    ## 10 C        GSW         1171560          1403611        1641534
    ## # ... with 140 more rows, and 1 more variable: `max(salary)` <dbl>
…
